…
Normalized boxplot

``` r
means_subject <- df %>% 
   filter(category != "Filler") %>% 
   summarySEwithin(.,"timing.01",withinvars = c("subject","PosOr"))
(means_subject <- means_subject %>%
  group_by(subject) %>%
  dplyr::mutate(timing.01_norm = timing.01 - first(timing.01)))
```

    ## # A tibble: 150 x 8
    ## # Groups:   subject [30]
    ##    subject PosOr     N timing.01    sd    se    ci timing.01_norm
    ##    <fct>   <fct> <dbl>     <dbl> <dbl> <dbl> <dbl>          <dbl>
    ##  1 1       1        24     1127.  250.  51.1  106.            0  
    ##  2 1       2        22     1269.  325.  69.3  144.          142. 
    ##  3 1       3        22     1240.  277.  59.1  123.          113. 
    ##  4 1       4        24     1348.  491. 100.   207.          221. 
    ##  5 1       5        24     1526.  586. 120.   247.          399. 
    ##  6 2       1        23     1030   332.  69.2  144.            0  
    ##  7 2       2        22     1073.  478. 102.   212.           42.5
    ##  8 2       3        23     1087.  470.  97.9  203.           56.7
    ##  9 2       4        21     1098.  538. 117.   245.           68.3
    ## 10 2       5        24      962.  260.  53.0  110.          -68.1
    ## # … with 140 more rows
…
